^E:\UQAC WORKS\8IAR125\TP1\WESTWORLDWITHMESSAGINGMODIFIEDTP1\DEBUG\BASEGAMEENTITY.OBJ|E:\UQAC WORKS\8IAR125\TP1\WESTWORLDWITHMESSAGINGMODIFIEDTP1\DEBUG\CRUDETIMER.OBJ|E:\UQAC WORKS\8IAR125\TP1\WESTWORLDWITHMESSAGINGMODIFIEDTP1\DEBUG\DRUNKGUY.OBJ|E:\UQAC WORKS\8IAR125\TP1\WESTWORLDWITHMESSAGINGMODIFIEDTP1\DEBUG\DRUNKGUYOWNEDSTATES.OBJ|E:\UQAC WORKS\8IAR125\TP1\WESTWORLDWITHMESSAGINGMODIFIEDTP1\DEBUG\ENTITYMANAGER.OBJ|E:\UQAC WORKS\8IAR125\TP1\WESTWORLDWITHMESSAGINGMODIFIEDTP1\DEBUG\MAIN.OBJ|E:\UQAC WORKS\8IAR125\TP1\WESTWORLDWITHMESSAGINGMODIFIEDTP1\DEBUG\MESSAGEDISPATCHER.OBJ|E:\UQAC WORKS\8IAR125\TP1\WESTWORLDWITHMESSAGINGMODIFIEDTP1\DEBUG\MINER.OBJ|E:\UQAC WORKS\8IAR125\TP1\WESTWORLDWITHMESSAGINGMODIFIEDTP1\DEBUG\MINEROWNEDSTATES.OBJ|E:\UQAC WORKS\8IAR125\TP1\WESTWORLDWITHMESSAGINGMODIFIEDTP1\DEBUG\MINERSWIFE.OBJ|E:\UQAC WORKS\8IAR125\TP1\WESTWORLDWITHMESSAGINGMODIFIEDTP1\DEBUG\MINERSWIFEOWNEDSTATES.OBJ|E:\UQAC WORKS\8IAR125\TP1\WESTWORLDWITHMESSAGINGMODIFIEDTP1\DEBUG\WESTWORLDWITHMESSAGING.EXE.EMBED.MANIFEST.RES
/ERRORREPORT:PROMPT /OUT:".\Debug/WestWorldWithMessaging.exe" /INCREMENTAL /NOLOGO kernel32.lib user32.lib gdi32.lib winspool.lib comdlg32.lib advapi32.lib shell32.lib ole32.lib oleaut32.lib uuid.lib odbc32.lib odbccp32.lib /MANIFEST /ManifestFile:".\Debug\WestWorldWithMessaging.exe.intermediate.manifest" /MANIFESTUAC:"level='asInvoker' uiAccess='false'" /DEBUG /PDB:".\Debug/WestWorldWithMessaging.pdb" /SUBSYSTEM:CONSOLE /TLBID:1 /DYNAMICBASE /NXCOMPAT /IMPLIB:".\Debug\WestWorldWithMessaging.lib" /MACHINE:X86 .\Debug\WestWorldWithMessaging.exe.embed.manifest.res
.\Debug/BaseGameEntity.obj
.\Debug/DrunkGuy.obj
.\Debug/DrunkGuyOwnedStates.obj
.\Debug/EntityManager.obj
.\Debug/main.obj
.\Debug/MessageDispatcher.obj
.\Debug/Miner.obj
.\Debug/MinerOwnedStates.obj
.\Debug/MinersWife.obj
.\Debug/MinersWifeOwnedStates.obj
.\Debug/CrudeTimer.obj
